"valkyrie_rage"
{
	// General
	//-------------------------------------------------------------------------------------------------------------
	"BaseClass"						"ability_datadriven"
	"AbilityBehavior"				"DOTA_ABILITY_BEHAVIOR_NO_TARGET"
	"AbilityUnitDamageType"			"DAMAGE_TYPE_PHYSICAL"	
	"AbilityTextureName"			"valkyrie_fury"

	"MaxLevel"               		"3"
	"RequiredLevel"          		"1"
	"LevelsBetweenUpgrades"  		"2"
	
	"AbilityCooldown"				"14.0 18.0 22.0"	
	"AbilityDuration"				"8.0 12.0 16.0"
	"AbilityCastRange"				"260"
	"AbilityManaCost"				"80"	
	
	"precache"
	{
		"soundfile"			"soundevents/game_sounds_heroes/game_sounds_huskar.vsndevts"
		"particle"			"particles/units/heroes/hero_phantom_assassin/phantom_assassin_crit_impact_drops_b_lv.vpcf"
	}
	
	"AbilitySpecial"
	{
		"01"
		{
			"var_type"				"FIELD_INTEGER"
			"bonus_damage"			"20 50 80"
		}
		"02"
		{
			"var_type"				"FIELD_INTEGER"
			"bonus_agility"			"15 30 45"
		}
		"03"
		{
			"var_type"				"FIELD_INTEGER"
			"radius"				"260"
		}
	}
	"OnSpellStart"
	{
		"ApplyModifier"
		{
			"ModifierName" 		"modifier_valkyrie_rage"
			"Target"			"CASTER"
			"Duration"			"%AbilityDuration"
		}
	}

	"Modifiers"
	{
		"modifier_valkyrie_rage"
		{
			"Passive"               "0"
			"IsHidden"				"0"

			"Properties"
			{
				"MODIFIER_PROPERTY_STATS_AGILITY_BONUS" "%bonus_agility"
			}			
			
			"Orb"
			{
				"Priority"			"DOTA_ORB_PRIORITY_ABILITY"
			}		
			"OnOrbImpact"
			{
				"ActOnTargets"
				{
					"Target"
					{
						"Center"	"TARGET"
						"Radius"	"%radius"
						"Teams"		"DOTA_UNIT_TARGET_TEAM_ENEMY"
						"Types"		"DOTA_UNIT_TARGET_HERO | DOTA_UNIT_TARGET_BASIC"
						"Flags" 	"DOTA_UNIT_TARGET_FLAG_MAGIC_IMMUNE_ENEMIES"
					}
					"Action"
					{
						"Damage"
						{
							"Target"	"TARGET"
							"Type" 		"DAMAGE_TYPE_PHYSICAL"
							"Damage" 	"%bonus_damage"
						}
						"FireEffect"
						{
							"EffectName"		"particles/units/heroes/hero_phantom_assassin/phantom_assassin_crit_impact_drops_b_lv.vpcf"
							"EffectAttachType"	"follow_origin"
							"Target"			"TARGET"
						}
					}
				}
			}
		}
	}
}

"valkyrie_true_hit"
{
	// General
	//-------------------------------------------------------------------------------------------------------------
	"BaseClass"						"ability_datadriven"
	"AbilityBehavior"				"DOTA_ABILITY_BEHAVIOR_NO_TARGET | DOTA_ABILITY_BEHAVIOR_PASSIVE"
	"AbilityUnitDamageType"			"DAMAGE_TYPE_PURE"	
	"AbilityTextureName"			"valkyrie_true_hit"

	"MaxLevel"               		"3"
	"RequiredLevel"          		"2"
	"LevelsBetweenUpgrades"  		"2"
	
	// Special	
	//-------------------------------------------------------------------------------------------------------------
	"AbilitySpecial"
	{
		"01"
		{
			"var_type"				"FIELD_INTEGER"
			"main_target_percent"		"3 6 9"
		}
		"02"
		{
			"var_type"				"FIELD_INTEGER"
			"secondary_target_percent"		"3"
		}
		"03"
		{
			"var_type"				"FIELD_INTEGER"
			"radius"		"275"
		}
	}
	
    	"OnRespawn"
	{
		"ApplyModifier"	"modifier_true_hit"
	}	

	"Modifiers"
	{
		"modifier_true_hit"
		{
			"Passive"               "1"
			"IsHidden"				"1"
		
			"OnAttackStart"
			{
				"RunScript"
    			{
			        "ScriptFile"    "heroes/Valkyrie/TrueHit.lua"
			        "Function"      "DealDamage"
					"Target"
					{
						"Center"	"TARGET"
						"Radius"	"%radius"
						"Teams"		"DOTA_UNIT_TARGET_TEAM_ENEMY"
						"Types"		"DOTA_UNIT_TARGET_HERO | DOTA_UNIT_TARGET_BASIC"
						"Flags" 	"DOTA_UNIT_TARGET_FLAG_MAGIC_IMMUNE_ENEMIES"
					}
					"Damage"	"%bonus_damage"
				}
			}
		}
	}
}

"valkyrie_agility"
{
	// General
	//-------------------------------------------------------------------------------------------------------------
	"BaseClass"				"ability_datadriven"
	"AbilityBehavior"				"DOTA_ABILITY_BEHAVIOR_PASSIVE | DOTA_ABILITY_BEHAVIOR_AURA"
	"AbilityUnitTargetTeam"			"DOTA_UNIT_TARGET_TEAM_FRIENDLY"
	"AbilityTextureName"			"valkyrie_agility"
	
	"MaxLevel"               "3"
	"RequiredLevel"          "2"
	"LevelsBetweenUpgrades"  "2"
	
	// Casting
	"AbilitySpecial"
	{
		"01"
		{
			"var_type"				"FIELD_INTEGER"
			"radius"				"700"
		}
		"02"
		{
			"var_type"				"FIELD_INTEGER"
			"bonus_attack_speed"	"15 30 45"
		}
	}
	
    	"OnRespawn"
	{
		"ApplyModifier"	"modifier_valkyrie_agility"
	}	
	
	"Modifiers"
	{
		"modifier_valkyrie_agility"
		{
			"Passive"			"1"
			"IsHidden"			"1"
	
			"Aura"          	"modifier_valkyrie_agility_buff"
			"Aura_Radius"   	"%radius"
			"Aura_Teams"    	"DOTA_UNIT_TARGET_TEAM_FRIENDLY"
			"Aura_Types"    	"DOTA_UNIT_TARGET_HERO | DOTA_UNIT_TARGET_BASIC" 
			"Aura_Flags"		"DOTA_UNIT_TARGET_FLAG_MAGIC_IMMUNE_ALLIES" 
		}

		"modifier_valkyrie_agility_buff"
		{
			"Properties"
			{
				"MODIFIER_PROPERTY_ATTACKSPEED_BONUS_CONSTANT" "%bonus_attack_speed"
			}
		}
	}
}

"valkyrie_fury"
{
	// General
	//-------------------------------------------------------------------------------------------------------------
	"BaseClass"				"ability_datadriven"
	"AbilityBehavior"				"DOTA_ABILITY_BEHAVIOR_UNIT_TARGET"
	"AbilityUnitTargetType"			"DOTA_UNIT_TARGET_HERO | DOTA_UNIT_TARGET_BASIC"
	"AbilityUnitTargetTeam"			"DOTA_UNIT_TARGET_TEAM_FRIENDLY"
	"AbilityTextureName"			"valkyrie_rage"
	
    "AbilityType"            "DOTA_ABILITY_TYPE_ULTIMATE"	
	"MaxLevel"               "3"
	"RequiredLevel"          "5"
	"LevelsBetweenUpgrades"  "4"

	"AbilityCastRange"				"700"
	"AbilityCastPoint"				"0.0"

	"AbilityCooldown"				"35.0 30.0 25.0"

	"AbilityManaCost"				"80 90 100"	

	"precache"
	{
	"particle"	"particles/units/heroes/hero_troll_warlord/troll_warlord_battletrance_buff.vpcf"
	}
	
	"AbilitySpecial"
	{
		"01"
		{
			"var_type"				"FIELD_INTEGER"
			"bonus_attack_speed"	"150 200 250"
		}
		"02"
		{
			"var_type"				"FIELD_FLOAT"
			"duration"				"10.0"
		}
	}

	"OnSpellStart"
	{
		"ApplyModifier"
		{
		"ModifierName" "modifier_valkyrie_fury_buff"
		"Target"	"TARGET"
		"Duration"	"%duration"
		}

		
	}
	"Modifiers"
	{
		"modifier_valkyrie_fury_buff"
		{
			"Properties"
			{
				"MODIFIER_PROPERTY_ATTACKSPEED_BONUS_CONSTANT" "%bonus_attack_speed"
			}
			"EffectName"        "particles/units/heroes/hero_troll_warlord/troll_warlord_battletrance_buff.vpcf"
			"EffectAttachType"  "follow_origin"
		}
	}
}